[
  {
    "name": "preload-page",
    "path": "/",
    "page": "preload-page"
  },
  {
    "name": "welcome",
    "path": "/welcome",
    "page": "landing-page"
  },
  {
    "name": "main",
    "path": "/main",
    "page": "home-page"
  },
  {
    "name": "inapp",
    "path": "/inapp/google",
    "page": "inapp-google"
  }
]